{
  "sidebar-1": {
    "search-2": {
      "title": ""
    },
    "covernews_tabbed_posts-4": {
      "covernews-tabbed-popular-posts-title": "Popular",
      "covernews-tabbed-latest-posts-title": "Latest",
      "covernews-tabbed-categorised-posts-title": "Trending",
      "covernews-show-excerpt": "false",
      "covernews-enable-categorised-tab": "true",
      "covernews-select-category": ""
    },
    "recent-posts-2": {
      "title": "",
      "number": 5
    },
    "meta-2": {
      "title": ""
    }
  },
  "home-content-widgets": {
    "covernews_double_col_categorised_posts-3": {
      "covernews-categorised-posts-title": "Posts Grid",
      "covernews-select-category": ""
    },
    "covernews_posts_slider-3": {
      "covernews-posts-slider-title": "Posts Slider",
      "covernews-select-category": ""
    },
    "covernews_posts_grid-3": {
      "covernews-categorised-posts-title-1": "Double Categories Posts 1",
      "covernews-categorised-posts-title-2": "Double Categories Posts 2",
      "covernews-select-category-1": "",
      "covernews-select-category-2": ""
    },
    "covernews_posts_carousel-3": {
      "covernews-posts-slider-title": "Posts Carousel",
      "covernews-select-category": ""
    }
  },
  "home-sidebar-widgets": {
    "covernews_tabbed_posts-3": {
      "covernews-tabbed-popular-posts-title": "Popular",
      "covernews-tabbed-latest-posts-title": "Latest",
      "covernews-tabbed-categorised-posts-title": "Trending",
      "covernews-show-excerpt": "false",
      "covernews-enable-categorised-tab": "true",
      "covernews-select-category": ""
    },
    "covernews_social_contacts-3": [],
    "covernews_posts_slider-4": []
  }
}